material Material#26
{
	technique
	{
		pass
		{
			ambient 0.588 0.588 0.588 1
			diffuse 0.588 0.588 0.588 1
			specular 0 0 0 1 10

			texture_unit
			{
				texture zzzzzzzzzzzz.jpg
			}
		}

	}

}



material Branch0
{
	technique
	{
		pass
		{
			ambient 0.1 0.1 0.1 1
			diffuse 0.27451 0.14902 0.0117647 1
			specular 0.045 0.045 0.045 1 25
		}

	}

}



material Trunk
{
	technique
	{
		pass
		{
			ambient 0.1 0.1 0.1 1
			diffuse 0.27451 0.14902 0.0117647 1
			specular 0 0 0 1 1
		}

	}

}



material Branch1
{
	technique
	{
		pass
		{
			ambient 0.1 0.1 0.1 1
			diffuse 0.27451 0.14902 0.0117647 1
			specular 0.045 0.045 0.045 1 25
		}

	}

}



material Trunk
{
	technique
	{
		pass
		{
			ambient 0.1 0.1 0.1 1
			diffuse 0.435294 0 0 1
			specular 0 0 0 1 1
		}

	}

}



material Leaves
{
	technique
	{
		pass
		{
			ambient 0.1 0.1 0.1 1
			diffuse 0.0196078 0.439216 0 1
			specular 0 0 0 1 1
			cull_hardware none
			cull_software none
		}

	}

}



material Fronds
{
	technique
	{
		pass
		{
			ambient 0.1 0.1 0.1 1
			diffuse 0.121569 0.490196 0.00784314 1
			specular 0.045 0.045 0.045 1 25
		}

	}

}



material Trunk
{
	technique
	{
		pass
		{
			ambient 0.1 0.1 0.1 1
			diffuse 0.435294 0 0 1
			specular 0 0 0 1 1
		}

	}

}



material Branch1
{
	technique
	{
		pass
		{
			ambient 0.1 0.1 0.1 1
			diffuse 0.435294 0 0 1
			specular 0 0 0 1 1
		}

	}

}



material Branch0
{
	technique
	{
		pass
		{
			ambient 0.1 0.1 0.1 1
			diffuse 0.435294 0 0 1
			specular 0 0 0 1 1
		}

	}

}



material Fronds
{
	technique
	{
		pass
		{
			ambient 0.1 0.1 0.1 1
			diffuse 0 0.458824 0.215686 1
			specular 0.045 0.045 0.045 1 25

			texture_unit
			{
				texture garlic.tga
			}
		}

	}

}



material Needles
{
	technique
	{
		pass
		{
			ambient 0.1 0.1 0.1 1
			diffuse 0.0509804 0.396078 0.262745 1
			specular 0 0 0 1 1
			cull_hardware none
			cull_software none
		}

	}

}



material Flowers
{
	technique
	{
		pass
		{
			ambient 0.1 0.1 0.1 1
			diffuse 0.909804 0.478431 0.905882 1
			specular 0.045 0.045 0.045 1 25
			cull_hardware none
			cull_software none
		}

	}

}



material Stalks
{
	technique
	{
		pass
		{
			ambient 0.1 0.1 0.1 1
			diffuse 0.337255 0.0196078 0.439216 1
			specular 0.045 0.045 0.045 1 25
		}

	}

}



material Leaves
{
	technique
	{
		pass
		{
			ambient 0.1 0.1 0.1 1
			diffuse 0.0941176 0.4 0 1
			specular 0 0 0 1 1
			cull_hardware none
			cull_software none
		}

	}

}



material Trunk
{
	technique
	{
		pass
		{
			ambient 0.1 0.1 0.1 1
			diffuse 0.345098 0.215686 0.0117647 1
			specular 0 0 0 1 1
		}

	}

}



material Wigglers
{
	technique
	{
		pass
		{
			ambient 0.1 0.1 0.1 1
			diffuse 0.345098 0.215686 0.0117647 1
			specular 0 0 0 1 1
		}

	}

}